subst_code;gender;cons;cons_0_19;cons_20_59;cons_60
97603,0;All;6434940,0;445018.0;3821382.0;2167983.0
97603,0;Male;2138976,0;;;
97603,0;Female;4295964,0;;;
788,0;All;5794311,0;135556.0;3174108.0;2481259.0
788,0;Male;1806590,0;;;
788,0;Female;3987721,0;;;
5767,0;All;24029,0;4270.0;10602.0;9157.0
5767,0;Male;10219,0;;;
5767,0;Female;13810,0;;;
360,0;All;44087,0;709.0;19875.0;23491.0
360,0;Male;12527,0;;;
360,0;Female;31560,0;;;
1493,0;All;2041381,0;29946.0;1030339.0;980701.0
1493,0;Male;687638,0;;;
1493,0;Female;1353743,0;;;
1755,0;All;78680,0;1248.0;38166.0;39304.0
1755,0;Male;26846,0;;;
1755,0;Female;51834,0;;;
87,0;All;245711,0;1251.0;110357.0;134090.0
87,0;Male;69735,0;;;
87,0;Female;175976,0;;;
877,0;All;24080,0;39.0;10580.0;13500.0
877,0;Male;7086,0;;;
877,0;Female;16994,0;;;
1990,0;All;89011,0;343.0;28261.0;60432.0
1990,0;Male;25268,0;;;
1990,0;Female;63743,0;;;
7560,0;All;8431581,0;202319.0;4938908.0;3288356.0
7560,0;Male;2150345,0;;;
7560,0;Female;6281236,0;;;
29250,0;All;2918149,0;16612.0;1402159.0;1498713.0
29250,0;Male;848504,0;;;
29250,0;Female;2069645,0;;;
47018,0;All;6264904,0;74330.0;3511713.0;2677191.0
47018,0;Male;2108208,0;;;
47018,0;Female;4156696,0;;;
18265,0;All;6471123,0;74283.0;3588289.0;2806791.0
18265,0;Male;2133914,0;;;
18265,0;Female;4337209,0;;;
31513,0;All;259098,0;1794.0;139728.0;117495.0
31513,0;Male;79452,0;;;
31513,0;Female;179646,0;;;
23046,0;All;142274,0;3551.0;67982.0;70855.0
23046,0;Male;51965,0;;;
23046,0;Female;90309,0;;;
78924,0;All;20570537,0;212801.0;12166117.0;8186666.0
78924,0;Male;6225462,0;;;
78924,0;Female;14345075,0;;;
2685,0;All;2070,0;0;1202.0;881.0
2685,0;Male;887,0;;;
2685,0;Female;1183,0;;;
21102,0;All;56005,0;150.0;18766.0;37103.0
21102,0;Male;19280,0;;;
21102,0;Female;36725,0;;;
602,0;All;7303082,0;34080.0;2341687.0;4926704.0
602,0;Male;2497189,0;;;
602,0;Female;4805893,0;;;
45485,0;All;4442475,0;30086.0;1928262.0;2483317.0
45485,0;Male;1679540,0;;;
45485,0;Female;2762935,0;;;
8215,0;All;335503,0;913.0;117466.0;217058.0
8215,0;Male;107476,0;;;
8215,0;Female;228027,0;;;
20256,0;All;12144983,0;94899.0;7341409.0;4706577.0
20256,0;Male;3777870,0;;;
20256,0;Female;8367113,0;;;
75210,0;All;429256,0;1640.0;253841.0;173755.0
75210,0;Male;111990,0;;;
75210,0;Female;317266,0;;;
80476,0;All;4742245,0;19095.0;2753487.0;1968177.0
80476,0;Male;1410084,0;;;
80476,0;Female;3332161,0;;;
38188,0;All;381364,0;2987.0;261377.0;116780.0
38188,0;Male;130630,0;;;
38188,0;Female;250734,0;;;
50873,0;All;1318507,0;20057.0;925544.0;372897.0
50873,0;Male;468754,0;;;
50873,0;Female;849753,0;;;
