subst_code;gender;nb_declaration;nb_declaration_0_19;nb_declaration_20_59;nb_declaration_60
97603,0;All;1975,0;294.0;916.0;750.0
97603,0;Male;683,0;;;
97603,0;Female;1283,0;;;
788,0;All;2705,0;174.0;1309.0;1193.0
788,0;Male;919,0;;;
788,0;Female;1773,0;;;
5767,0;All;18,0;0;12.0;0
5767,0;Male;0,0;;;
5767,0;Female;14,0;;;
360,0;All;40,0;0;18.0;22.0
360,0;Male;16,0;;;
360,0;Female;24,0;;;
1493,0;All;999,0;38.0;476.0;479.0
1493,0;Male;328,0;;;
1493,0;Female;670,0;;;
1755,0;All;28,0;0;0;15.0
1755,0;Male;0,0;;;
1755,0;Female;19,0;;;
87,0;All;107,0;0;40.0;64.0
87,0;Male;31,0;;;
87,0;Female;75,0;;;
877,0;All;21,0;0;0;0
877,0;Male;0,0;;;
877,0;Female;15,0;;;
1990,0;All;49,0;0;16.0;32.0
1990,0;Male;19,0;;;
1990,0;Female;30,0;;;
7560,0;All;2021,0;188.0;987.0;830.0
7560,0;Male;569,0;;;
7560,0;Female;1445,0;;;
29250,0;All;723,0;0;237.0;471.0
29250,0;Male;250,0;;;
29250,0;Female;472,0;;;
47018,0;All;1474,0;41.0;599.0;819.0
47018,0;Male;527,0;;;
47018,0;Female;943,0;;;
18265,0;All;1785,0;67.0;783.0;925.0
18265,0;Male;595,0;;;
18265,0;Female;1184,0;;;
31513,0;All;129,0;0;59.0;63.0
31513,0;Male;51,0;;;
31513,0;Female;77,0;;;
23046,0;All;80,0;15.0;36.0;29.0
23046,0;Male;39,0;;;
23046,0;Female;41,0;;;
78924,0;All;3637,0;90.0;1536.0;1982.0
78924,0;Male;1149,0;;;
78924,0;Female;2473,0;;;
2685,0;All;11,0;0;0;0
2685,0;Male;0,0;;;
2685,0;Female;0,0;;;
21102,0;All;53,0;0;12.0;40.0
21102,0;Male;20,0;;;
21102,0;Female;33,0;;;
602,0;All;2465,0;29.0;458.0;1958.0
602,0;Male;919,0;;;
602,0;Female;1536,0;;;
45485,0;All;2470,0;44.0;742.0;1655.0
45485,0;Male;939,0;;;
45485,0;Female;1518,0;;;
8215,0;All;148,0;0;36.0;108.0
8215,0;Male;49,0;;;
8215,0;Female;99,0;;;
20256,0;All;2365,0;80.0;1185.0;1082.0
20256,0;Male;742,0;;;
20256,0;Female;1617,0;;;
75210,0;All;159,0;0;93.0;63.0
75210,0;Male;39,0;;;
75210,0;Female;120,0;;;
80476,0;All;1873,0;30.0;874.0;953.0
80476,0;Male;595,0;;;
80476,0;Female;1273,0;;;
38188,0;All;191,0;0;115.0;73.0
38188,0;Male;68,0;;;
38188,0;Female;122,0;;;
50873,0;All;693,0;17.0;470.0;196.0
50873,0;Male;192,0;;;
50873,0;Female;500,0;;;
